module codeberg.org/justusbunsi/gitea-sonarqube-bot

go 1.23

require (
	code.gitea.io/sdk/gitea v0.19.0
	github.com/gin-gonic/gin v1.10.0
	github.com/spf13/viper v1.19.0
	github.com/stretchr/testify v1.10.0
	github.com/urfave/cli/v2 v2.27.5
)

require (
	github.com/bytedance/sonic v1.12.5 // indirect
	github.com/bytedance/sonic/loader v0.2.1 // indirect
	github.com/cloudwego/base64x v0.1.4 // indirect
	github.com/cloudwego/iasm v0.2.0 // indirect
	github.com/cpuguy83/go-md2man/v2 v2.0.5 // indirect
	github.com/davecgh/go-spew v1.1.2-0.20180830191138-d8f796af33cc // indirect
	github.com/davidmz/go-pageant v1.0.2 // indirect
	github.com/fsnotify/fsnotify v1.8.0 // indirect
	github.com/gabriel-vasile/mimetype v1.4.7 // indirect
	github.com/gin-contrib/sse v0.1.0 // indirect
	github.com/go-fed/httpsig v1.1.0 // indirect
	github.com/go-playground/locales v0.14.1 // indirect
	github.com/go-playground/universal-translator v0.18.1 // indirect
	github.com/go-playground/validator/v10 v10.23.0 // indirect
	github.com/goccy/go-json v0.10.3 // indirect
	github.com/hashicorp/go-version v1.7.0 // indirect
	github.com/hashicorp/hcl v1.0.0 // indirect
	github.com/json-iterator/go v1.1.12 // indirect
	github.com/klauspost/cpuid/v2 v2.2.9 // indirect
	github.com/leodido/go-urn v1.4.0 // indirect
	github.com/magiconair/properties v1.8.7 // indirect
	github.com/mattn/go-isatty v0.0.20 // indirect
	github.com/mitchellh/mapstructure v1.5.0 // indirect
	github.com/modern-go/concurrent v0.0.0-20180306012644-bacd9c7ef1dd // indirect
	github.com/modern-go/reflect2 v1.0.2 // indirect
	github.com/pelletier/go-toml/v2 v2.2.3 // indirect
	github.com/pmezard/go-difflib v1.0.1-0.20181226105442-5d4384ee4fb2 // indirect
	github.com/russross/blackfriday/v2 v2.1.0 // indirect
	github.com/sagikazarmark/locafero v0.6.0 // indirect
	github.com/sagikazarmark/slog-shim v0.1.0 // indirect
	github.com/sourcegraph/conc v0.3.0 // indirect
	github.com/spf13/afero v1.11.0 // indirect
	github.com/spf13/cast v1.7.0 // indirect
	github.com/spf13/pflag v1.0.5 // indirect
	github.com/stretchr/objx v0.5.2 // indirect
	github.com/subosito/gotenv v1.6.0 // indirect
	github.com/twitchyliquid64/golang-asm v0.15.1 // indirect
	github.com/ugorji/go/codec v1.2.12 // indirect
	github.com/xrash/smetrics v0.0.0-20240521201337-686a1a2994c1 // indirect
	go.uber.org/multierr v1.11.0 // indirect
	golang.org/x/arch v0.12.0 // indirect
	golang.org/x/crypto v0.29.0 // indirect
	golang.org/x/exp v0.0.0-20241108190413-2d47ceb2692f // indirect
	golang.org/x/net v0.31.0 // indirect
	golang.org/x/sys v0.27.0 // indirect
	golang.org/x/text v0.20.0 // indirect
	google.golang.org/protobuf v1.35.2 // indirect
	gopkg.in/ini.v1 v1.67.0 // indirect
	gopkg.in/yaml.v3 v3.0.1 // indirect
)
